Football-Swimming_Jack Fang
…
library(ggplot2)
library(dplyr)

Football <- olympics %>%
  filter(sport == "Football")%>%
  drop_na()
Football

# A tibble: 1,084 × 15
      id name     sex     age height weight team  noc   games  year season city 
   <dbl> <chr>    <chr> <dbl>  <dbl>  <dbl> <chr> <chr> <chr> <dbl> <chr>  <chr>
 1    37 "Ann Kr… F        23    182     64 Norw… NOR   1996…  1996 Summer Atla…
 2    76 "Jouan … M        22    185     82 Came… CMR   2000…  2000 Summer Sydn…
 3   669 "Joachi… M        18    181     73 Ghana GHA   1992…  1992 Summer Barc…
 4   716 "Lautar… M        20    168     72 Arge… ARG   2008…  2008 Summer Beij…
 5   785 "Darius… M        22    179     78 Pola… POL   1992…  1992 Summer Barc…
 6   882 "Simon … M        17    180     79 Ghana GHA   1992…  1992 Summer Barc…
 7   896 "Olubay… M        22    181     82 Nige… NGR   2008…  2008 Summer Beij…
 8   908 "Ayodel… M        19    190     80 Nige… NGR   2008…  2008 Summer Beij…
 9   918 "Ademir… M        24    179     74 Braz… BRA   1984…  1984 Summer Los …
10   918 "Ademir… M        28    179     74 Braz… BRA   1988…  1988 Summer Seoul
# ℹ 1,074 more rows
# ℹ 3 more variables: sport <chr>, event <chr>, medal <chr>

Swimming<- olympics %>%
  filter(sport == "Swimming")%>%
  drop_na()
Swimming

# A tibble: 2,486 × 15
      id name     sex     age height weight team  noc   games  year season city 
   <dbl> <chr>    <chr> <dbl>  <dbl>  <dbl> <chr> <chr> <chr> <dbl> <chr>  <chr>
 1   259 "Reema … F        21    173     59 Cana… CAN   1984…  1984 Summer Los …
 2   460 "Viktor… M        22    190     78 Sovi… URS   1972…  1972 Summer Muni…
 3   460 "Viktor… M        22    190     78 Sovi… URS   1972…  1972 Summer Muni…
 4   465 "Matthe… M        30    197     92 Aust… AUS   2016…  2016 Summer Rio …
 5   509 "Gary A… M        21    175     64 Grea… GBR   1980…  1980 Summer Mosk…
 6   980 "Rebecc… F        19    179     70 Grea… GBR   2008…  2008 Summer Beij…
 7   980 "Rebecc… F        19    179     70 Grea… GBR   2008…  2008 Summer Beij…
 8   980 "Rebecc… F        23    179     70 Grea… GBR   2012…  2012 Summer Lond…
 9   980 "Rebecc… F        23    179     70 Grea… GBR   2012…  2012 Summer Lond…
10  1017 "Nathan… M        19    198    100 Unit… USA   2008…  2008 Summer Beij…
# ℹ 2,476 more rows
# ℹ 3 more variables: sport <chr>, event <chr>, medal <chr>
…
Participation_Summary <- Filtered_Experience %>%
  group_by(name, Sport) %>%
  summarise(
    Participation_Count = n(),
    Medal_Count = sum(!is.na(medal))
  ) %>%
  arrange(desc(Participation_Count))

`summarise()` has grouped output by 'name'. You can override using the
`.groups` argument.

Participation_Summary

# A tibble: 2,224 × 4
# Groups:   name [2,224]
   name                                    Sport Participation_Count Medal_Count
   <chr>                                   <chr>               <int>       <int>
 1 "Michael Fred Phelps, II"               Swim…                  28          28
 2 "Dara Grace Torres (-Hoffman, -Minas)"  Swim…                  12          12
 3 "Jennifer Elisabeth \"Jenny\" Thompson… Swim…                  12          12
 4 "Natalie Anne Coughlin (-Hall)"         Swim…                  12          12
 5 "Ryan Steven Lochte"                    Swim…                  12          12
 6 "Mark Andrew Spitz"                     Swim…                  11          11
 7 "Matthew Nicholas \"Matt\" Biondi"      Swim…                  11          11
 8 "Franziska van Almsick"                 Swim…                  10          10
 9 "Gary Wayne Hall, Jr."                  Swim…                  10          10
10 "Aleksandr Vladimirovich Popov"         Swim…                   9           9
# ℹ 2,214 more rows

#Analyze which countries are top performers

Country_Dominance <- Filtered_Data %>%
  filter(!is.na(medal)) %>%
  group_by(noc, Sport) %>%
  summarise(Total_Medals = n()) %>%
  arrange(desc(Total_Medals))

`summarise()` has grouped output by 'noc'. You can override using the `.groups`
argument.

Country_Dominance

# A tibble: 84 × 3
# Groups:   noc [61]
   noc   Sport    Total_Medals
   <chr> <chr>           <int>
 1 USA   Swimming          918
 2 AUS   Swimming          349
 3 GDR   Swimming          152
 4 BRA   Football          131
 5 URS   Swimming          118
 6 GER   Swimming          114
 7 GER   Football          104
 8 CAN   Swimming           89
 9 NED   Swimming           85
10 JPN   Swimming           84
# ℹ 74 more rows
…
