Olympidata - Appendix D — Figure Skating & Speed Skating
…
library(tidyverse)
library(ggplot2)
library(dplyr)
library(gt)

F EDA/Wrangling Data

F.1 Filter by Sport

figure <- olympics %>%
  filter(sport == "Figure Skating")%>%
  drop_na()
figure
## # A tibble: 249 × 15
##       id name     sex     age height weight team  noc   games  year season city 
##    <dbl> <chr>    <chr> <dbl>  <dbl>  <dbl> <chr> <chr> <chr> <dbl> <chr>  <chr>
##  1   145 "Jeremy… M        28    175     70 Unit… USA   2014…  2014 Winter Sochi
##  2  1188 "Benjam… M        24    178     75 Unit… USA   2006…  2006 Winter Tori…
##  3  2869 "Scott … M        14    163     69 Unit… USA   1964…  1964 Winter Inns…
##  4  4392 "Marina… F        22    162     52 Fran… FRA   1998…  1998 Winter Naga…
##  5  4392 "Marina… F        26    162     52 Fran… FRA   2002…  2002 Winter Salt…
##  6  4799 "Shizuk… F        24    164     50 Japan JPN   2006…  2006 Winter Tori…
##  7  5451 "Mao As… F        19    163     50 Japan JPN   2010…  2010 Winter Vanc…
##  8  6092 "Ilya I… M        28    177     68 Russ… RUS   2002…  2002 Winter Salt…
##  9  6956 "Oksana… F        16    159     43 Ukra… UKR   1994…  1994 Winter Lill…
## 10  7933 "Petr B… M        25    165     65 Czec… TCH   1992…  1992 Winter Albe…
## # ℹ 239 more rows
## # ℹ 3 more variables: sport <chr>, event <chr>, medal <chr>

speed <- olympics %>%
  filter(sport == "Speed Skating")%>%
  drop_na()
speed
## # A tibble: 488 × 15
##       id name     sex     age height weight team  noc   games  year season city 
##    <dbl> <chr>    <chr> <dbl>  <dbl>  <dbl> <chr> <chr> <chr> <dbl> <chr>  <chr>
##  1   548 Yekater… F        23    167     65 Russ… RUS   2006…  2006 Winter Tori…
##  2  2378 Sylvia … F        17    165     57 East… GDR   1980…  1980 Winter Lake…
##  3  3782 Terje A… M        27    180     75 Norw… NOR   1980…  1980 Winter Lake…
##  4  4256 Matteo … M        21    185     81 Italy ITA   2006…  2006 Winter Tori…
##  5  4457 Daniela… F        31    165     60 Germ… GER   2006…  2006 Winter Tori…
##  6  4457 Daniela… F        35    165     60 Germ… GER   2010…  2010 Winter Vanc…
##  7  4604 Ants An… M        25    184     84 Sovi… URS   1964…  1964 Winter Inns…
##  8  5579 Jeanne … F        21    157     57 Unit… USA   1960…  1960 Winter Squa…
##  9  5908 Susan M… F        27    172     65 Cana… CAN   1994…  1994 Winter Lill…
## 10  5908 Susan M… F        31    172     65 Cana… CAN   1998…  1998 Winter Naga…
## # ℹ 478 more rows
## # ℹ 3 more variables: sport <chr>, event <chr>, medal <chr>
…
F.4 Seperating by Country Participation

speed_participatory <- olympics |>
  filter(sport %in% c("Speed Skating")) |>
  group_by(noc, sport) |>
  summarize(participation = n(), .groups = 'drop') |>
  arrange(desc(participation))
speed_participatory
## # A tibble: 41 × 3
##    noc   sport         participation
##    <chr> <chr>                 <int>
##  1 USA   Speed Skating           570
##  2 NED   Speed Skating           503
##  3 JPN   Speed Skating           474
##  4 CAN   Speed Skating           433
##  5 NOR   Speed Skating           410
##  6 GER   Speed Skating           289
##  7 SWE   Speed Skating           281
##  8 KOR   Speed Skating           271
##  9 FIN   Speed Skating           244
## 10 URS   Speed Skating           222
## # ℹ 31 more rows

figure_participatory <- olympics |>
  filter(sport %in% c("Figure Skating")) |>
  group_by(noc, sport) |>
  summarize(participation = n(), .groups = 'drop') |>
  arrange(desc(participation))
figure_participatory
## # A tibble: 55 × 3
##    noc   sport          participation
##    <chr> <chr>                  <int>
##  1 USA   Figure Skating           293
##  2 CAN   Figure Skating           228
##  3 GBR   Figure Skating           174
##  4 FRA   Figure Skating           130
##  5 GER   Figure Skating           109
##  6 RUS   Figure Skating           106
##  7 AUT   Figure Skating           101
##  8 URS   Figure Skating            94
##  9 JPN   Figure Skating            91
## 10 ITA   Figure Skating            90
## # ℹ 45 more rows
…
