Olympidata - Report
…
library(ggplot2)
library(dplyr)
library(tidyr)

# Count number of participants in each sport
sport_distribution <- olympics |>
  group_by(sport) |>
  summarise(participants = n(), .groups = 'drop') |>
  arrange(desc(participants))
sport_distribution

# A tibble: 66 × 2
   sport                participants
   <chr>                       <int>
 1 Athletics                   38624
 2 Gymnastics                  26707
 3 Swimming                    23195
 4 Shooting                    11448
 5 Cycling                     10859
 6 Fencing                     10735
 7 Rowing                      10595
 8 Cross Country Skiing         9133
 9 Alpine Skiing                8829
10 Wrestling                    7154
# ℹ 56 more rows
…
# Count number of participants per year
participation_trends <- olympics |>
  group_by(year) |>
  summarise(participants = n(), .groups = 'drop')
participation_trends

# A tibble: 35 × 2
    year participants
   <dbl>        <int>
 1  1896          380
 2  1900         1936
 3  1904         1301
 4  1906         1733
 5  1908         3101
 6  1912         4040
 7  1920         4292
 8  1924         5693
 9  1928         5574
10  1932         3321
# ℹ 25 more rows
…
yearly_trends <- olympics |>
  filter(sport %in% c("Shooting", "Rowing","Swimming","Football")) |>
  group_by(sport, year) |>
  summarize(participation = n(), .groups = 'drop') |>
  arrange(year)
yearly_trends

# A tibble: 111 × 3
   sport     year participation
   <chr>    <dbl>         <int>
 1 Shooting  1896            65
 2 Swimming  1896            18
 3 Football  1900            35
 4 Rowing    1900           133
 5 Shooting  1900           221
 6 Swimming  1900           131
 7 Football  1904            36
 8 Rowing    1904            46
 9 Swimming  1904            64
10 Football  1906            45
# ℹ 101 more rows
…
