Olympidata - Appendix B — Shooting & Rowing
…
F Generating Data

F.1 filter by sports

shooting <- olympics %>%
  filter(sport == "Shooting")%>%
  drop_na()
shooting
## # A tibble: 542 × 15
##       id name     sex     age height weight team  noc   games  year season city 
##    <dbl> <chr>    <chr> <dbl>  <dbl>  <dbl> <chr> <chr> <chr> <dbl> <chr>  <chr>
##  1  1540 Artur S… M        35    177     88 Ukra… UKR   2008…  2008 Summer Beij…
##  2  1809 Nasser … M        41    178     82 Qatar QAT   2012…  2012 Summer Lond…
##  3  1858 Fehaid … M        33    178     95 Kuwa… KUW   2000…  2000 Summer Sydn…
##  4  1858 Fehaid … M        45    178     95 Kuwa… KUW   2012…  2012 Summer Lond…
##  5  1858 Fehaid … M        49    178     95 Indi… IOA   2016…  2016 Summer Rio …
##  6  2025 Ahmed b… M        40    175     67 Unit… UAE   2004…  2004 Summer Athi…
##  7  2112 Abdulla… M        52    183     83 Indi… IOA   2016…  2016 Summer Rio …
##  8  2608 Yevgeny… M        33    181     88 Russ… RUS   2000…  2000 Summer Sydn…
##  9  2735 Sergey … M        41    168     72 Russ… RUS   2000…  2000 Summer Sydn…
## 10  2735 Sergey … M        45    168     72 Russ… RUS   2004…  2004 Summer Athi…
## # ℹ 532 more rows
## # ℹ 3 more variables: sport <chr>, event <chr>, medal <chr>

rowing<- olympics %>%
  filter(sport == "Rowing")%>%
  drop_na()
rowing
## # A tibble: 2,104 × 15
##       id name     sex     age height weight team  noc   games  year season city 
##    <dbl> <chr>    <chr> <dbl>  <dbl>  <dbl> <chr> <chr> <chr> <dbl> <chr>  <chr>
##  1    30 Pepijn … M        26    189     72 Neth… NED   1996…  1996 Summer Atla…
##  2    62 Giovann… M        21    198     90 Italy ITA   2016…  2016 Summer Rio …
##  3   106 Agostin… M        22    188     96 Italy ITA   1988…  1988 Summer Seoul
##  4   106 Agostin… M        29    188     96 Italy ITA   1996…  1996 Summer Atla…
##  5   106 Agostin… M        34    188     96 Italy ITA   2000…  2000 Summer Sydn…
##  6   107 Carmine… M        22    182     90 Italy ITA   1984…  1984 Summer Los …
##  7   107 Carmine… M        26    182     90 Italy ITA   1988…  1988 Summer Seoul
##  8   107 Carmine… M        30    182     90 Italy ITA   1992…  1992 Summer Barc…
##  9   108 Giusepp… M        25    187     97 Italy ITA   1984…  1984 Summer Los …
## 10   108 Giusepp… M        29    187     97 Italy ITA   1988…  1988 Summer Seoul
## # ℹ 2,094 more rows
## # ℹ 3 more variables: sport <chr>, event <chr>, medal <chr>
…
