Olympidata - Appendix C — Cross Country Skiing & Alpine Skiing
…
library(ggplot2)
library(dplyr)
library(tidyr)

olympics %>%
  group_by(sport) %>%
  summarize(n = n())%>%
  arrange(desc(n))

# A tibble: 66 × 2
   sport                    n
   <chr>                <int>
 1 Athletics            38624
 2 Gymnastics           26707
 3 Swimming             23195
 4 Shooting             11448
 5 Cycling              10859
 6 Fencing              10735
 7 Rowing               10595
 8 Cross Country Skiing  9133
 9 Alpine Skiing         8829
10 Wrestling             7154
# ℹ 56 more rows

D Top Countries by Participation

top_countries <- olympics |>
  filter(sport %in% c("Cross Country Skiing", "Alpine Skiing")) |>
  group_by(noc, sport) |>
  summarize(participation = n(), .groups = 'drop') |>
  arrange(desc(participation))
top_countries

# A tibble: 182 × 3
   noc   sport                participation
   <chr> <chr>                        <int>
 1 SWE   Cross Country Skiing           596
 2 FIN   Cross Country Skiing           590
 3 NOR   Cross Country Skiing           578
 4 AUT   Alpine Skiing                  556
 5 USA   Alpine Skiing                  552
 6 USA   Cross Country Skiing           538
 7 ITA   Cross Country Skiing           528
 8 SUI   Alpine Skiing                  520
 9 ITA   Alpine Skiing                  498
10 FRA   Alpine Skiing                  476
# ℹ 172 more rows
…
F Participation Over Years

yearly_trends <- olympics |>
  filter(sport %in% c("Cross Country Skiing", "Alpine Skiing")) |>
  group_by(sport, year) |>
  summarize(participation = n(), .groups = 'drop') |>
  arrange(year)
yearly_trends

# A tibble: 41 × 3
   sport                 year participation
   <chr>                <dbl>         <int>
 1 Cross Country Skiing  1924            74
 2 Cross Country Skiing  1928            90
 3 Cross Country Skiing  1932            74
 4 Alpine Skiing         1936           103
 5 Cross Country Skiing  1936           175
 6 Alpine Skiing         1948           360
 7 Cross Country Skiing  1948           156
 8 Alpine Skiing         1952           378
 9 Cross Country Skiing  1952           188
10 Alpine Skiing         1956           403
# ℹ 31 more rows
…
